<?xml version="1.0" encoding="UTF-8" standalone="no"?>
<!-- Created with Inkscape (http://www.inkscape.org/) -->

<svg
   xmlns:dc="http://purl.org/dc/elements/1.1/"
   xmlns:cc="http://creativecommons.org/ns#"
   xmlns:rdf="http://www.w3.org/1999/02/22-rdf-syntax-ns#"
   xmlns:svg="http://www.w3.org/2000/svg"
   xmlns="http://www.w3.org/2000/svg"
   xmlns:sodipodi="http://sodipodi.sourceforge.net/DTD/sodipodi-0.dtd"
   xmlns:inkscape="http://www.inkscape.org/namespaces/inkscape"
   width="1024"
   height="400"
   id="svg2985"
   version="1.1"
   inkscape:version="0.48.3.1 r9886"
   sodipodi:docname="overview.pdf"
   inkscape:export-filename="/home/igor/Documents/Study/Seminar2013/Presentation/overview.pdf.png"
   inkscape:export-xdpi="300"
   inkscape:export-ydpi="300">
  <defs
     id="defs2987">
    <marker
       inkscape:stockid="Arrow2Mend"
       orient="auto"
       refY="0.0"
       refX="0.0"
       id="Arrow2Mend"
       style="overflow:visible;">
      <path
         id="path4401"
         style="fill-rule:evenodd;stroke-width:0.62500000;stroke-linejoin:round;"
         d="M 8.7185878,4.0337352 L -2.2072895,0.016013256 L 8.7185884,-4.0017078 C 6.9730900,-1.6296469 6.9831476,1.6157441 8.7185878,4.0337352 z "
         transform="scale(0.6) rotate(180) translate(0,0)" />
    </marker>
    <marker
       inkscape:stockid="Arrow2Lend"
       orient="auto"
       refY="0"
       refX="0"
       id="Arrow2Lend"
       style="overflow:visible">
      <path
         id="path4395"
         style="fill-rule:evenodd;stroke-width:0.625;stroke-linejoin:round"
         d="M 8.7185878,4.0337352 -2.2072895,0.01601326 8.7185884,-4.0017078 c -1.7454984,2.3720609 -1.7354408,5.6174519 -6e-7,8.035443 z"
         transform="matrix(-1.1,0,0,-1.1,-1.1,0)"
         inkscape:connector-curvature="0" />
    </marker>
    <marker
       inkscape:stockid="Arrow1Lend"
       orient="auto"
       refY="0"
       refX="0"
       id="Arrow1Lend"
       style="overflow:visible">
      <path
         id="path4377"
         d="M 0,0 5,-5 -12.5,0 5,5 0,0 z"
         style="fill-rule:evenodd;stroke:#000000;stroke-width:1pt"
         transform="matrix(-0.8,0,0,-0.8,-10,0)"
         inkscape:connector-curvature="0" />
    </marker>
    <marker
       inkscape:stockid="Arrow2Lend"
       orient="auto"
       refY="0"
       refX="0"
       id="Arrow2Lend-9"
       style="overflow:visible">
      <path
         inkscape:connector-curvature="0"
         id="path4395-2"
         style="fill-rule:evenodd;stroke-width:0.625;stroke-linejoin:round"
         d="M 8.7185878,4.0337352 -2.2072895,0.01601326 8.7185884,-4.0017078 c -1.7454984,2.3720609 -1.7354408,5.6174519 -6e-7,8.035443 z"
         transform="matrix(-1.1,0,0,-1.1,-1.1,0)" />
    </marker>
    <marker
       inkscape:stockid="Arrow2Lend"
       orient="auto"
       refY="0"
       refX="0"
       id="Arrow2Lend-4"
       style="overflow:visible">
      <path
         inkscape:connector-curvature="0"
         id="path4395-1"
         style="fill-rule:evenodd;stroke-width:0.625;stroke-linejoin:round"
         d="M 8.7185878,4.0337352 -2.2072895,0.01601326 8.7185884,-4.0017078 c -1.7454984,2.3720609 -1.7354408,5.6174519 -6e-7,8.035443 z"
         transform="matrix(-1.1,0,0,-1.1,-1.1,0)" />
    </marker>
    <marker
       inkscape:stockid="Arrow2Lend"
       orient="auto"
       refY="0"
       refX="0"
       id="Arrow2Lend-48"
       style="overflow:visible">
      <path
         inkscape:connector-curvature="0"
         id="path4395-27"
         style="fill-rule:evenodd;stroke-width:0.625;stroke-linejoin:round"
         d="M 8.7185878,4.0337352 -2.2072895,0.01601326 8.7185884,-4.0017078 c -1.7454984,2.3720609 -1.7354408,5.6174519 -6e-7,8.035443 z"
         transform="matrix(-1.1,0,0,-1.1,-1.1,0)" />
    </marker>
    <marker
       inkscape:stockid="Arrow2Mend"
       orient="auto"
       refY="0"
       refX="0"
       id="Arrow2Mend-9"
       style="overflow:visible">
      <path
         inkscape:connector-curvature="0"
         id="path4401-5"
         style="fill-rule:evenodd;stroke-width:0.625;stroke-linejoin:round"
         d="M 8.7185878,4.0337352 -2.2072895,0.01601326 8.7185884,-4.0017078 c -1.7454984,2.3720609 -1.7354408,5.6174519 -6e-7,8.035443 z"
         transform="scale(-0.6,-0.6)" />
    </marker>
    <marker
       inkscape:stockid="Arrow2Mend"
       orient="auto"
       refY="0"
       refX="0"
       id="Arrow2Mend-9-4"
       style="overflow:visible">
      <path
         inkscape:connector-curvature="0"
         id="path4401-5-9"
         style="fill-rule:evenodd;stroke-width:0.625;stroke-linejoin:round"
         d="M 8.7185878,4.0337352 -2.2072895,0.01601326 8.7185884,-4.0017078 c -1.7454984,2.3720609 -1.7354408,5.6174519 -6e-7,8.035443 z"
         transform="scale(-0.6,-0.6)" />
    </marker>
    <marker
       inkscape:stockid="Arrow2Mend"
       orient="auto"
       refY="0"
       refX="0"
       id="Arrow2Mend-9-46"
       style="overflow:visible">
      <path
         inkscape:connector-curvature="0"
         id="path4401-5-8"
         style="fill-rule:evenodd;stroke-width:0.625;stroke-linejoin:round"
         d="M 8.7185878,4.0337352 -2.2072895,0.01601326 8.7185884,-4.0017078 c -1.7454984,2.3720609 -1.7354408,5.6174519 -6e-7,8.035443 z"
         transform="scale(-0.6,-0.6)" />
    </marker>
    <marker
       inkscape:stockid="Arrow2Mend"
       orient="auto"
       refY="0"
       refX="0"
       id="Arrow2Mend-9-6"
       style="overflow:visible">
      <path
         inkscape:connector-curvature="0"
         id="path4401-5-2"
         style="fill-rule:evenodd;stroke-width:0.625;stroke-linejoin:round"
         d="M 8.7185878,4.0337352 -2.2072895,0.01601326 8.7185884,-4.0017078 c -1.7454984,2.3720609 -1.7354408,5.6174519 -6e-7,8.035443 z"
         transform="scale(-0.6,-0.6)" />
    </marker>
    <marker
       inkscape:stockid="Arrow2Mend"
       orient="auto"
       refY="0"
       refX="0"
       id="Arrow2Mend-6"
       style="overflow:visible">
      <path
         inkscape:connector-curvature="0"
         id="path4401-6"
         style="fill-rule:evenodd;stroke-width:0.625;stroke-linejoin:round"
         d="M 8.7185878,4.0337352 -2.2072895,0.01601326 8.7185884,-4.0017078 c -1.7454984,2.3720609 -1.7354408,5.6174519 -6e-7,8.035443 z"
         transform="scale(-0.6,-0.6)" />
    </marker>
  </defs>
  <sodipodi:namedview
     id="base"
     pagecolor="#ffffff"
     bordercolor="#666666"
     borderopacity="1.0"
     inkscape:pageopacity="0.0"
     inkscape:pageshadow="2"
     inkscape:zoom="1"
     inkscape:cx="543.60576"
     inkscape:cy="172.26035"
     inkscape:current-layer="layer1"
     inkscape:document-units="px"
     showgrid="false"
     inkscape:snap-bbox="true"
     inkscape:snap-global="false"
     inkscape:window-width="1920"
     inkscape:window-height="1152"
     inkscape:window-x="0"
     inkscape:window-y="26"
     inkscape:window-maximized="1"
     showguides="true"
     inkscape:guide-bbox="true">
    <sodipodi:guide
       orientation="0,1"
       position="389,240"
       id="guide5119" />
  </sodipodi:namedview>
  <metadata
     id="metadata2990">
    <rdf:RDF>
      <cc:Work
         rdf:about="">
        <dc:format>image/svg+xml</dc:format>
        <dc:type
           rdf:resource="http://purl.org/dc/dcmitype/StillImage" />
        <dc:title></dc:title>
      </cc:Work>
    </rdf:RDF>
  </metadata>
  <g
     id="layer1"
     inkscape:label="Layer 1"
     inkscape:groupmode="layer"
     transform="translate(0,-368)">
    <rect
       style="fill:none;stroke:#000000;stroke-width:5;stroke-linecap:round;stroke-linejoin:round;stroke-miterlimit:4;stroke-opacity:1;stroke-dasharray:none"
       id="rect5104"
       width="1014"
       height="388"
       x="7"
       y="5"
       transform="translate(0,368)"
       rx="30"
       ry="30" />
    <rect
       style="fill:#000000;stroke:#000000;stroke-width:4.33165025999999997;stroke-linecap:round;stroke-linejoin:round;stroke-miterlimit:4;stroke-opacity:1;stroke-dasharray:none;fill-opacity:0.11764706"
       id="rect5106"
       width="209.66835"
       height="106.66835"
       x="20.665825"
       y="420.66583"
       rx="27.229656"
       ry="24.806593" />
    <rect
       style="fill:#000000;stroke:#000000;stroke-width:4.33165025999999997;stroke-linecap:round;stroke-linejoin:round;stroke-miterlimit:4;stroke-opacity:1;stroke-dasharray:none;fill-opacity:0.11764706"
       id="rect5106-7"
       width="209.66835"
       height="106.66835"
       x="273.16583"
       y="421.66583"
       rx="27.229656"
       ry="24.806593" />
    <rect
       style="fill:#000000;stroke:#000000;stroke-width:4.33165025999999997;stroke-linecap:round;stroke-linejoin:round;stroke-miterlimit:4;stroke-opacity:1;stroke-dasharray:none;fill-opacity:0.11764706"
       id="rect5106-6"
       width="209.66835"
       height="106.66835"
       x="536.16583"
       y="422.66583"
       rx="27.229656"
       ry="24.806593" />
    <rect
       style="fill:#000000;stroke:#000000;stroke-width:4.33165025999999997;stroke-linecap:round;stroke-linejoin:round;stroke-miterlimit:4;stroke-opacity:1;stroke-dasharray:none;fill-opacity:0.11764706"
       id="rect5106-0"
       width="209.66835"
       height="106.66835"
       x="796.16583"
       y="423.66583"
       rx="27.229656"
       ry="24.806593" />
    <rect
       style="fill:#000000;stroke:#000000;stroke-width:4.33165025999999997;stroke-linecap:round;stroke-linejoin:round;stroke-miterlimit:4;stroke-opacity:1;stroke-dasharray:none;fill-opacity:0.11764706"
       id="rect5106-5"
       width="209.66835"
       height="106.66835"
       x="20.415817"
       y="619.16583"
       rx="27.229656"
       ry="24.806593" />
    <rect
       style="fill:#000000;stroke:#000000;stroke-width:4.33165025999999997;stroke-linecap:round;stroke-linejoin:round;stroke-miterlimit:4;stroke-opacity:1;stroke-dasharray:none;fill-opacity:0.11764706"
       id="rect5106-7-4"
       width="209.66835"
       height="106.66835"
       x="272.91583"
       y="620.16583"
       rx="27.229656"
       ry="24.806593" />
    <rect
       style="fill:#000000;stroke:#000000;stroke-width:4.33165025999999997;stroke-linecap:round;stroke-linejoin:round;stroke-miterlimit:4;stroke-opacity:1;stroke-dasharray:none;fill-opacity:0.11764706"
       id="rect5106-6-7"
       width="209.66835"
       height="106.66835"
       x="535.91583"
       y="621.16583"
       rx="27.229656"
       ry="24.806593" />
    <rect
       style="fill:#000000;stroke:#000000;stroke-width:4.33165025999999997;stroke-linecap:round;stroke-linejoin:round;stroke-miterlimit:4;stroke-opacity:1;stroke-dasharray:none;fill-opacity:0.11764706"
       id="rect5106-0-3"
       width="209.66835"
       height="106.66835"
       x="795.91583"
       y="622.16583"
       rx="27.229656"
       ry="24.806593" />
    <flowRoot
       xml:space="preserve"
       id="flowRoot5212"
       style="font-size:40px;font-style:normal;font-weight:normal;line-height:125%;letter-spacing:0px;word-spacing:0px;fill:#000000;fill-opacity:1;stroke:none;font-family:Sans"
       transform="translate(-3,378)"><flowRegion
         id="flowRegion5214"><rect
           id="rect5216"
           width="183"
           height="59"
           x="32"
           y="66" /></flowRegion><flowPara
         id="flowPara5218"
         style="font-size:22px;text-align:center;text-anchor:middle">Stereo based ROI extraction</flowPara></flowRoot>    <flowRoot
       xml:space="preserve"
       id="flowRoot5212-9"
       style="font-size:40px;font-style:normal;font-weight:normal;line-height:125%;letter-spacing:0px;word-spacing:0px;fill:#000000;fill-opacity:1;stroke:none;font-family:Sans"
       transform="translate(-6.6342773,564.52318)"><flowRegion
         id="flowRegion5214-8"><rect
           id="rect5216-6"
           width="194"
           height="86"
           x="32"
           y="66" /></flowRegion><flowPara
         id="flowPara5218-8"
         style="font-size:22px;text-align:center;text-anchor:middle">Segmentation into individual objects</flowPara></flowRoot>    <flowRoot
       xml:space="preserve"
       id="flowRoot5212-4"
       style="font-size:40px;font-style:normal;font-weight:normal;line-height:125%;letter-spacing:0px;word-spacing:0px;fill:#000000;fill-opacity:1;stroke:none;font-family:Sans"
       transform="translate(258.36572,382.52318)"><flowRegion
         id="flowRegion5214-4"><rect
           id="rect5216-61"
           width="183"
           height="59"
           x="32"
           y="66" /></flowRegion><flowPara
         id="flowPara5218-9"
         style="font-size:22px;text-align:center;text-anchor:middle">Model based ICP tracker</flowPara></flowRoot>    <flowRoot
       xml:space="preserve"
       id="flowRoot5212-1"
       style="font-size:40px;font-style:normal;font-weight:normal;line-height:125%;letter-spacing:0px;word-spacing:0px;fill:#000000;fill-opacity:1;stroke:none;font-family:Sans"
       transform="translate(252.36572,565.52318)"><flowRegion
         id="flowRegion5214-81"><rect
           id="rect5216-7"
           width="190"
           height="87"
           x="32"
           y="66" /></flowRegion><flowPara
         id="flowPara5218-0"
         style="font-size:22px;text-align:center;text-anchor:middle">Data association with tracked objects</flowPara></flowRoot>    <flowRoot
       xml:space="preserve"
       id="flowRoot5212-7"
       style="font-size:40px;font-style:normal;font-weight:normal;line-height:125%;letter-spacing:0px;word-spacing:0px;fill:#000000;fill-opacity:1;stroke:none;font-family:Sans"
       transform="translate(519.36572,381.52318)"><flowRegion
         id="flowRegion5214-7"><rect
           id="rect5216-0"
           width="183"
           height="59"
           x="32"
           y="66" /></flowRegion><flowPara
         id="flowPara5218-7"
         style="font-size:22px;text-align:center;text-anchor:middle">Update the 3D model</flowPara></flowRoot>    <flowRoot
       xml:space="preserve"
       id="flowRoot5212-3"
       style="font-size:40px;font-style:normal;font-weight:normal;line-height:125%;letter-spacing:0px;word-spacing:0px;fill:#000000;fill-opacity:1;stroke:none;font-family:Sans"
       transform="translate(781.36572,380.52318)"><flowRegion
         id="flowRegion5214-2"><rect
           id="rect5216-3"
           width="183"
           height="59"
           x="32"
           y="66" /></flowRegion><flowPara
         id="flowPara5218-4"
         style="font-size:22px;text-align:center;text-anchor:middle">Pedestrian classification</flowPara></flowRoot>    <flowRoot
       xml:space="preserve"
       id="flowRoot5212-0"
       style="font-size:40px;font-style:normal;font-weight:normal;line-height:125%;letter-spacing:0px;word-spacing:0px;fill:#000000;fill-opacity:1;stroke:none;font-family:Sans"
       transform="translate(779.36572,581.52318)"><flowRegion
         id="flowRegion5214-49"><rect
           id="rect5216-36"
           width="183"
           height="59"
           x="32"
           y="66" /></flowRegion><flowPara
         id="flowPara5218-99"
         style="font-size:22px;text-align:center;text-anchor:middle">Carried items detection</flowPara></flowRoot>    <flowRoot
       xml:space="preserve"
       id="flowRoot5212-06"
       style="font-size:40px;font-style:normal;font-weight:normal;line-height:125%;letter-spacing:0px;word-spacing:0px;fill:#000000;fill-opacity:1;stroke:none;font-family:Sans"
       transform="translate(516.36572,580.52318)"><flowRegion
         id="flowRegion5214-0"><rect
           id="rect5216-8"
           width="183"
           height="59"
           x="32"
           y="66" /></flowRegion><flowPara
         id="flowPara5218-70"
         style="font-size:22px;text-align:center;text-anchor:middle">Generate a new 3D model</flowPara></flowRoot>    <path
       style="fill:none;stroke:#000000;stroke-width:2.91616797;stroke-linecap:butt;stroke-linejoin:round;stroke-miterlimit:4;stroke-opacity:1;stroke-dasharray:none;marker-end:url(#Arrow2Mend)"
       d="m 117.99979,524.95808 0,87.23709"
       id="path5327"
       inkscape:connector-type="polyline"
       inkscape:connector-curvature="0" />
    <path
       style="fill:none;stroke:#000000;stroke-width:2.87318444;stroke-linecap:butt;stroke-linejoin:round;stroke-miterlimit:4;stroke-opacity:1;stroke-dasharray:none;marker-end:url(#Arrow2Mend)"
       d="m 374.97129,619.84238 0,-84.3593"
       id="path5327-2"
       inkscape:connector-type="polyline"
       inkscape:connector-curvature="0" />
    <path
       style="fill:none;stroke:#000000;stroke-width:3;stroke-linecap:round;stroke-linejoin:round;stroke-miterlimit:4;stroke-opacity:1;stroke-dasharray:none;marker-end:url(#Arrow2Mend-9)"
       d="m 229,299 40,0"
       id="path5547"
       inkscape:connector-type="polyline"
       inkscape:connector-curvature="0"
       transform="translate(0,368)" />
    <path
       style="fill:none;stroke:#000000;stroke-width:3.08903527;stroke-linecap:round;stroke-linejoin:round;stroke-miterlimit:4;stroke-opacity:1;stroke-dasharray:none;marker-end:url(#Arrow2Mend-9)"
       d="m 486.80796,478.0286 42.74146,0"
       id="path5547-3"
       inkscape:connector-type="polyline"
       inkscape:connector-curvature="0" />
    <path
       style="fill:none;stroke:#000000;stroke-width:3.22999358;stroke-linecap:round;stroke-linejoin:round;stroke-miterlimit:4;stroke-opacity:1;stroke-dasharray:none;marker-end:url(#Arrow2Mend-9)"
       d="m 483.87844,673.02824 47.31757,0"
       id="path5547-9"
       inkscape:connector-type="polyline"
       inkscape:connector-curvature="0" />
    <path
       style="fill:none;stroke:#000000;stroke-width:3.14647698;stroke-linecap:round;stroke-linejoin:round;stroke-miterlimit:4;stroke-opacity:1;stroke-dasharray:none;marker-end:url(#Arrow2Mend-9)"
       d="m 746.83668,476.02845 44.57091,0"
       id="path5547-4"
       inkscape:connector-type="polyline"
       inkscape:connector-curvature="0" />
    <path
       style="fill:none;stroke:#000000;stroke-width:2.91616797;stroke-linecap:butt;stroke-linejoin:round;stroke-miterlimit:4;stroke-opacity:1;stroke-dasharray:none;marker-end:url(#Arrow2Mend)"
       d="m 900.97198,529.17945 0,87.23709"
       id="path5327-8"
       inkscape:connector-type="polyline"
       inkscape:connector-curvature="0" />
    <text
       xml:space="preserve"
       style="font-size:40px;font-style:normal;font-weight:normal;line-height:125%;letter-spacing:0px;word-spacing:0px;fill:#000000;fill-opacity:1;stroke:none;font-family:Sans"
       x="384"
       y="584"
       id="text5813"
       sodipodi:linespacing="125%"><tspan
         sodipodi:role="line"
         id="tspan5815"
         x="384"
         y="584"
         style="font-size:18px">if matched</tspan></text>
    <text
       xml:space="preserve"
       style="font-size:40px;font-style:normal;font-weight:normal;line-height:125%;letter-spacing:0px;word-spacing:0px;fill:#000000;fill-opacity:1;stroke:none;font-family:Sans"
       x="489.69971"
       y="657.71045"
       id="text5813-6"
       sodipodi:linespacing="125%"><tspan
         sodipodi:role="line"
         id="tspan5815-6"
         x="489.69971"
         y="657.71045"
         style="font-size:18px">else</tspan></text>
    <text
       xml:space="preserve"
       style="font-size:40px;font-style:normal;font-weight:normal;line-height:125%;letter-spacing:0px;word-spacing:0px;fill:#000000;fill-opacity:1;stroke:none;font-family:Sans"
       x="907.69971"
       y="581.71045"
       id="text5813-9"
       sodipodi:linespacing="125%"><tspan
         sodipodi:role="line"
         id="tspan5815-8"
         x="907.69971"
         y="581.71045"
         style="font-size:18px">if true</tspan></text>
    <text
       xml:space="preserve"
       style="font-size:40px;font-style:normal;font-weight:normal;line-height:125%;letter-spacing:0px;word-spacing:0px;fill:#000000;fill-opacity:1;stroke:none;font-family:Sans"
       x="41"
       y="411"
       id="text5859"
       sodipodi:linespacing="125%"><tspan
         sodipodi:role="line"
         id="tspan5861"
         x="41"
         y="411">for each frame</tspan></text>
  </g>
</svg>
